﻿{
	"$schema": "http://json-schema.org/draft-04/schema#",	
	"definitions":	{
			"field": {
						"type":"object",						
						"properties":
						{
							"caption": 
							{
								"type":"string",
								"description":"A label for a field, button, link or a displayable string for a option in a drop-down."
							},
							"action":{"$ref": "#/definitions/action"},
							"options": 
							{
								"description":"List of selectable options for a drop-down field",
								"type":"array",								
								"items":
									{
										"description":"Multiple option elements will exist based on the number of selectable options for the drop-down field",
										"type":"object",										
										"properties":
										{
											"caption": 
											{
												"description":"A displayable string for the drop-down option.",
												"type":"string",
												"required":true
											},
											"value": 
											{
												"description":"The code value for the drop-down option.",
												"type":"string",
												"required":true
											},
										},		
									},										
							},
							"controlType": 
							{
								"type":"string",
								"description":"Indicates the type of control for the field",								
								"enum": ["select", "textarea", "text","checkbox","radio"]
							},
							"dataType": 
							{
								"type":"string",
								"description":"Indicates the data type for the field",
								"enum": ["boolean", "date", "int","float","string","password"]
							},
							"format": 
							{
								"type":"string",
								"description":"Indicates how the data should be formatted.  The format can be a displayable format for a number or a displayable type; examples 'ssn', 'zipcode', '-?,???,???,??#'"								
							},
							"hidden": 
							{
								"type":"string",
								"description":"Indicates whether the field is viewable",							
								"pattern":"0|1"
							},
							"maxLength": 
							{
								"type":"string",
								"description":"Indicates the maximum characters for a field.  The default will be set to 50, but can be overridden."
							},
							"name": 
							{
								"type":"string",
								"description":"Unique identifier for the field",
								"required":true
							},
							"readOnly": 
							{
								"type":"string",
								"description":"Indicates whether the field is read only",
								"pattern":"0|1"
							},
							"reference": 
							{
								"type":"string",
								"description":"Unique key for the field on the current page; It will be a generated index at runtime and used to find internal references keys to store the data",
								"required":true
							},
							"required": 
							{
								"type":"string",
								"description":"Indicates whether the field is required",
								"pattern":"0|1"
							},
							"value": 
							{
								"type":"string",
								"description":"The current value for a field or a code value for a selection in a drop-down",
								"required":true
							},
							"product":
							{
								"type":"string",
								"description":"Indicates the product the field belongs to."
							},
					 },
				},
				"method":
				{
						"type":"object",		
						"properties":
						{
							"pageSet": 
							{
								"type":"string",
								"description":"Defines the page set the action is associated with"
							},
							"page": 
							{
								"type":"string",
								"description":"Defines the page the action is associated with"
							},
							"type": 
							{
								"type":"string",
								"description":"Defines the REST verb to be used when using the uniform resource identifier for the RESTful call against the API",	
								"enum": ["GET", "POST", "DELETE","PUT"],
								"required":true
							},
							"uri": 
							{
								"type":"string",			
								"description":"Defines a valid uniform resource identifier that can be used to make RESTful call against the API",
								"required":true
							},
						},
				},
				"action":
				{
					"type":"object",
					"properties":
					{
						"caption": 
						{
							"type":"string",
							"description":"A label for a button or link."
						},
						"contentType": 
						{
							"type":"string",
							"description":"Defines the type of content to be passed when using the uniform resource identifier during the RESTful call against the API",
							"enum": ["application/xml", "application/json", "application/multipart/form-data","multipart/form-data","text/xml"],
							"required":true
						},
						"description": 
						{
							"type":"string",
							"description":"Describes the purpose for the uniform resource identifier",
							"required":true
						},
						"id": 
						{
							"description":"Defines a unique identifier for the action",
							"type":"string",
							"required":true
						},
						"hidden":
						{
							"description":"Indicates whether the action is viewable",
							"type":"string",							
							"pattern":"0|1"
						},
						"method":
						{
							"type":"array",	
							"description":"Defines the group of methods for the action in a sequential processing order. Methods can be skipped if processing is not needed.",							
							"items":{"$ref": "#/definitions/method"}
						},
					},
				},
			
	},
	"type":"object",	
	"properties":	{
		"controls": 
		{
			"type":"array",
			"items":
			{
				"type":"object",	
				"properties":
				{
					"field":{ "$ref": "#/definitions/field" }
				},
			},

		},
		"hidden": 
		{
			"type":"number",
			"description":"Indicates whether a page is viewable",			
			"pattern":"0|1",
			"required":true			
		},
		"name": 
		{
			"type":"string",
			"description":"Unique identifier for the page",
			"required":true
		},
		"navigation": 
		{
			"type":"object",
			"description":"Defines a group of actions elements related to page navigation",			
			"properties":
			{
				"actions": 
				{
					"type":"array",					
					"items":{"$ref":"#/definitions/action"}
				},
			},
		},		
		"startingPage": 
		{
			"type":"number",
			"description":"Defines the starting page for a page set; It will not appear if it does not apply",			
			"pattern":"0|1"
		},
		"title": 
		{
			"type":"string",
			"description":"Title of the page",
			"required":true
		},
	},
}
