{
  "$schema": "http://json-schema.org/draft-04/schema#",  
  "type": "object",
  "properties": {
    "partyID": {     
      "type": "string",     
            },
            "links": {             
              "type": "array",
              "items": {                
                "type": "object",
                "properties": {
                  "rel": {                   
                    "type": "array",
                    "items": {                     
                      "type": "string"
                    },
					"required" : ["0"]
                  },
                  "href": {                   
                    "type": "string"
                  }
                },
				"required" : ["rel","href"]
              }			 
            }      
        },		  "required" : ["partyID","links"]
      
    }
