{
    "type": "object", 
    "$schema": "http://json-schema.org/draft-03/schema", 
    "required": false, 
    "properties": 
	{
        "effectiveDateNew": 
		{
            "type": "string", 
			"description": "The effective date for new business policies for the product; If the product does not use this element, it will be set to a string, such as 'Admin' or 'None'",
            "required": false
        }, 
        "effectiveDateRenewal": 
		{
            "type": "string", 
			"description": "The effective date for renewals policies for the product; If the product does not use this element, it will be set to a string, such as 'Admin' or 'None'",
            "required": false
        }, 
        "lob": 
		{
            "type": "string", 
			"description": "The line of business for the product",
            "required": false
        }, 
        "name": 
		{
            "type": "string", 
			"description": "Unique identifier for the product",
            "required": false
        }, 
        "productId": 
		{
            "type": "string", 
			"description": "A unique identifier for the stored product data. It is a reference to the submission identifier, quote identifier, or policy identifier.",
            "required": false
        }, 
        "status": 
		{
            "type": "string", 
			"description": "The current status of the product",
            "required": false
        }, 
        "versionDate": 
		{
            "type": "string",
			"description": "The version date for the product", 
            "required": false
        }, 
        "version": 
		{
            "type": "string", 
			"description": "The version number for the product. It includes the base version number, lob version number, circular version number, and a correction version number",
            "required": false
        }, 
        "pageSets": 
		{
            "type": "array", 
			"description":"Multiple page set elements will exist based on the number of page sets defined within the product",
            "required": false, 
            "items": 
			{
                "type": "object", 
                "required": false, 
                "properties": 
				{
                    "name": 
					{
                        "type": "string", 
                        "required": false
                    }, 
                    "pages": 
					{
                        "type": "array", 
						"description": "Multiple page elements will exist based on the number of pages defined within the product",
						"required": false, 
                        "items": 
						[
                            {
                                "type": "object", 
								"description": "Defines a group of fields, actions and groups for a page",
                                "required": false, 
                                "properties": 
								{
                                    "controls": 
									{
                                        "type": "array", 
										"description": "Defines a group of fields and actions",
                                        "required": false, 
                                        "items": 
										{
                                            "type": "object", 
                                            "required": false, 
                                            "properties": 
											{
                                                "field": 
												{
                                                    "type": "object", 
                                                    "required": false, 
                                                    "properties": {
                                                        "action": 
														{
                                                            "type": "object", 
                                                            "required": false, 
                                                            "properties": 
															{
                                                                "contentType": 
																{
                                                                    "type": "string", 
																	"description": "Defines the type of content to be passed when using the uniform resource identifier during the RESTful call against the API",
                                                                    "required": false
                                                                }, 
																"caption":
																{
																	"type": "string", 
																	"description": "A label for a button or link.",
                                                                    "required": false
																},
                                                                "description":
																{
                                                                    "type": "string", 
																	"description": "Describes the purpose for the uniform resource identifier",
                                                                    "required": false
                                                                }, 
																"id":
																{
																	"type": "string", 
																	"description": "Defines a unique identifier for the action",
                                                                    "required": false
																},
																"hidden":
																{
																	"type": "string", 
																	"description": "Indicates whether the action is viewable",
                                                                    "required": false
																},
                                                                "methods": 
																{
                                                                    "type": "array", 
																	"description": "Defines the group of methods for the action in a sequential processing order. Methods can be skipped if processing is not needed.",
                                                                    "required": false
                                                                }
                                                            }
                                                        }, 
                                                        "caption": 
														{
                                                            "type": "string", 
															"description": "A label for a field, button, link or a displayable string for a option in a drop-down.",
                                                            "required": false
                                                        }, 
                                                        "controlType": 
														{
                                                            "type": "string", 
															"description": "Indicates the type of control for the field",
                                                            "required": false
                                                        }, 
                                                        "dataType": 
														{
                                                            "type": "string", 
															"description": "Indicates the data type for the field",
                                                            "required": false
                                                        }, 
                                                        "format": 
														{
                                                            "type": "string", 
															"description": "Indicates how the data should be formatted.  The format can be a displayable format for a number or a displayable type; examples 'ssn', 'zipcode', '-?,???,???,??#'",
                                                            "required": false
                                                        }, 
                                                        "hidden": 
														{
                                                            "type": "string", 
															"description": "Indicates whether the field is viewable",
                                                            "required": false
                                                        }, 
                                                        "maxLength":
														{
                                                            "type": "string", 
															"description": "Indicates the maximum characters for a field.  The default will be set to 50, but can be overridden.",
                                                            "required": false
                                                        }, 
                                                        "name": 
														{
                                                            "type": "string", 
															"description": "Unique identifier for the field",
                                                            "required": false
                                                        }, 
                                                        "options": 
														{
                                                            "type": "array", 
															"description": "Multiple option elements will exist based on the number of selectable options for the drop-down field",
                                                            "required": false, 
                                                            "items": 
															{
                                                                "type": "object", 
																"description": "A single selectable option for a drop-down field",
                                                                "required": false, 
                                                                "properties": 
																{
                                                                    "caption": 
																	{
                                                                        "type": "string", 
																		"description": "A displayable string for the drop-down option.",
                                                                        "required": false
                                                                    }, 
                                                                    "value": 
																	{
                                                                        "type": "string", 
																		"description": "The code value for the drop-down option.",
                                                                        "required": false
                                                                    }
                                                                }
                                                            }
                                                        }, 
                                                        "readOnly": 
														{
                                                            "type": "string", 
															"description": "Indicates whether the field is read only",
                                                            "required": false
                                                        }, 
                                                        "reference": 
														{
                                                            "type": "string",
															"description": "Unique key for the field on the current page; It will be a generated index at runtime and used to find internal references keys to store the data", 
                                                            "required": false
                                                        }, 
                                                        "required": 
														{
                                                            "type": "string", 
															"description": "Indicates whether the field is required",
                                                            "required": false
                                                        }, 
                                                        "value":
														{
                                                            "type": "string", 
															"description": "The current value for a field or a code value for a selection in a drop-down",
                                                            "required": false
                                                        }
                                                    }
                                                }
                                            }
                                        }
                                    }, 
                                    "hidden": 
									{
                                        "type": "number", 
										"description": "Indicates whether a page is viewable",
                                        "required": false
                                    }, 
                                    "name": 
									{
                                        "type": "string", 
										"description": "Unique identifier for the page",
                                        "required": false
                                    }, 
                                    "startingPage": 
									{
                                        "type": "number", 
										"description": "Defines the starting page for a page set; It will not appear if it does not apply",
                                        "required": false
                                    }, 
                                    "title": 
									{
                                        "type": "string", 
										"description": "Title of the page",
                                        "required": false
                                    }
                                }
                            }
                        ]
                    }, 
                    "startingPageSet": 
					{
                        "type": "string", 
						"description": "Defines the starting pages set for a product; It will not appear if it does not apply",
                        "required": false
                    }
                }
            }
        }
    }
}